\relax 
\catcode `"\active 
\providecommand \oddpage@label [2]{}
\babel@aux{german}{}
\@writefile{toc}{\contentsline {section}{\numberline {1}Notation}{iii}}
\citation{googleIntro}
\citation{andreykurenkov}
\citation{Goodfellow-et-al-2016}
\citation{Bishop:2006:PRM:1162264}
\citation{Goodfellow-et-al-2016}
\citation{nielsenneural}
\@writefile{toc}{\contentsline {section}{\numberline {2}Einleitung}{1}}
\@writefile{toc}{\contentsline {subparagraph}{Versuch 2}{1}}
\@writefile{lof}{\contentsline {figure}{\numberline {1}{\ignorespaces \IeC {\"U}berblick des Forschungsfelds zu k\IeC {\"u}nstlicher Intelligenz}}{2}}
\newlabel{fig:vennAI}{{1}{2}}
\@writefile{lof}{\contentsline {figure}{\numberline {2}{\ignorespaces \IeC {\"U}berblick der Machine Learning Typen}}{2}}
\newlabel{fig:mlarten}{{2}{2}}
\citation{Bishop:2006:PRM:1162264}
\citation{quantstart1}
\citation{Goodfellow-et-al-2016}
\@writefile{toc}{\contentsline {section}{\numberline {3}Mathematische Grundlagen}{3}}
\@writefile{toc}{\contentsline {subsection}{\numberline {3.1}Skalare, Vektoren, Matrizen und Tensoren}{3}}
\@writefile{toc}{\contentsline {paragraph}{Skalare}{3}}
\@writefile{toc}{\contentsline {paragraph}{Vektoren}{3}}
\@writefile{toc}{\contentsline {paragraph}{Matrizen}{3}}
\citation{quantstart2}
\citation{Goodfellow-et-al-2016}
\@writefile{toc}{\contentsline {paragraph}{Tensoren}{4}}
\@writefile{toc}{\contentsline {subsection}{\numberline {3.2}Matrix Algebra}{4}}
\@writefile{toc}{\contentsline {paragraph}{Transponierung}{4}}
\@writefile{toc}{\contentsline {paragraph}{Matrix Multiplikation}{4}}
\citation{quantstart2}
\citation{Goodfellow-et-al-2016}
\citation{Mitchell:1997:ML:541177}
\citation{Goodfellow-et-al-2016}
\@writefile{toc}{\contentsline {paragraph}{Hadamard Produkt}{5}}
\@writefile{toc}{\contentsline {subsection}{\numberline {3.3}Normen}{5}}
\@writefile{toc}{\contentsline {subsection}{\numberline {3.4}Partielle Ableitungen und Gradienten}{5}}
\@writefile{toc}{\contentsline {subsection}{\numberline {3.5}Spezielle Matrizen}{5}}
\@writefile{toc}{\contentsline {section}{\numberline {4}Machine Learning Grundlagen}{5}}
\citation{nvidia}
\citation{Vasilev2019}
\citation{unsupervised}
\@writefile{toc}{\contentsline {subsection}{\numberline {4.1}Aufgaben}{6}}
\@writefile{toc}{\contentsline {subsection}{\numberline {4.2}\IeC {\"U}berwachtes Lernen}{6}}
\citation{Vasilev2019}
\citation{reinforcement}
\citation{Vasilev2019}
\citation{Goodfellow-et-al-2016}
\@writefile{toc}{\contentsline {subsection}{\numberline {4.3}Un\IeC {\"u}berwachtes Lernen}{7}}
\@writefile{toc}{\contentsline {subsection}{\numberline {4.4}Best\IeC {\"a}rkendes Lernen}{7}}
\@writefile{toc}{\contentsline {subsection}{\numberline {4.5}Lineare Regression}{7}}
\citation{SpektrumNeuronaleNetze}
\@writefile{toc}{\contentsline {subsubsection}{\numberline {4.5.1}Regularisierung}{8}}
\@writefile{toc}{\contentsline {subsubsection}{\numberline {4.5.2}Overfitting und underfitting}{8}}
\@writefile{lof}{\contentsline {figure}{\numberline {3}{\ignorespaces Beispielgraph zu linearer Regression}}{9}}
\newlabel{fig:linreg}{{3}{9}}
\@writefile{lof}{\contentsline {figure}{\numberline {4}{\ignorespaces Probleme bei linearer Regression}}{9}}
\newlabel{fig:over_underfitting}{{4}{9}}
\citation{Goodfellow-et-al-2016}
\citation{Goodfellow-et-al-2016}
\citation{nielsenneural}
\citation{Goodfellow-et-al-2016}
\citation{rosenblatt}
\@writefile{lof}{\contentsline {figure}{\numberline {5}{\ignorespaces Die Zahlen 0 bis 9}}{10}}
\newlabel{fig:mnist09}{{5}{10}}
\@writefile{toc}{\contentsline {section}{\numberline {5}K\IeC {\"u}nstliche neuronale Netze}{10}}
\@writefile{toc}{\contentsline {subsection}{\numberline {5.1}Feedforward neuronale Netze}{10}}
\@writefile{lof}{\contentsline {figure}{\numberline {6}{\ignorespaces Konzept eines Beispielnetzes}}{11}}
\newlabel{fig:samplearchitecture}{{6}{11}}
\@writefile{lof}{\contentsline {figure}{\numberline {7}{\ignorespaces Das Gewicht $w^l_{j,k}$ in einem Beispielnetz}}{11}}
\newlabel{fig:weight}{{7}{11}}
\citation{nielsenneural}
\citation{nielsenneural}
\@writefile{lof}{\contentsline {figure}{\numberline {8}{\ignorespaces Konzeptionelle Darstellung eines Neuron}}{12}}
\newlabel{fig:perceptron}{{8}{12}}
\@writefile{toc}{\contentsline {subsection}{\numberline {5.2}Perzeptron}{12}}
\newlabel{eq:perceptron1}{{25}{12}}
\newlabel{eq:perceptron2}{{27}{12}}
\citation{derivesigmoid}
\citation{nielsenneural}
\citation{nielsenneural}
\@writefile{toc}{\contentsline {subsection}{\numberline {5.3}Sigmoid Neuron}{13}}
\newlabel{eq:sigmaderivative}{{32}{13}}
\@writefile{toc}{\contentsline {subsection}{\numberline {5.4}Kostenfunktion}{13}}
\citation{Goodfellow-et-al-2016}
\@writefile{lof}{\contentsline {figure}{\numberline {9}{\ignorespaces Schwellenwertfunktion und Sigmoidfunktion}}{14}}
\newlabel{fig:activationfunctions}{{9}{14}}
\newlabel{eq:costfunction}{{36}{14}}
\@writefile{toc}{\contentsline {subsection}{\numberline {5.5}Gradientenverfahren}{14}}
\@writefile{lof}{\contentsline {figure}{\numberline {10}{\ignorespaces Visualisierung einer mehrdimensionalen, realen Kostenfunktion}}{15}}
\newlabel{fig:visualizationofcostfunction}{{10}{15}}
\@writefile{toc}{\contentsline {subsubsection}{\numberline {5.5.1}Ablauf}{15}}
\citation{Goodfellow-et-al-2016}
\@writefile{lof}{\contentsline {figure}{\numberline {11}{\ignorespaces Graph einer vereinfachten Kostenfunktion}}{16}}
\newlabel{fig:gradientdescentsample}{{11}{16}}
\@writefile{toc}{\contentsline {subsubsection}{\numberline {5.5.2}Mini-batch Stochastic Gradient Descent}{16}}
\citation{nielsenneural}
\citation{nielsenneural}
\citation{nielsenneural}
\@writefile{toc}{\contentsline {subsection}{\numberline {5.6}Backpropagation}{17}}
\@writefile{toc}{\contentsline {subsubsection}{\numberline {5.6.1}Ablauf der Fehlerr\IeC {\"u}ckf\IeC {\"u}hrung}{17}}
\newlabel{eq:error}{{47}{17}}
\newlabel{eq:BP1}{{{BP1}}{18}}
\newlabel{eq:BP2}{{{BP2}}{18}}
\newlabel{eq:BP3}{{{BP3}}{18}}
\newlabel{eq:BP4}{{{BP4}}{18}}
\@writefile{toc}{\contentsline {subsubsection}{\numberline {5.6.2}Herleitung der Formeln}{18}}
\@writefile{toc}{\contentsline {paragraph}{BP1}{18}}
\citation{nielsenneural}
\citation{taot}
\newlabel{eq:backprop1}{{{BP1a}}{19}}
\newlabel{eq:backprop1b}{{{BP1b}}{19}}
\@writefile{toc}{\contentsline {paragraph}{BP2}{19}}
\newlabel{eq:backprop2der1}{{51}{19}}
\newlabel{eq:backprop2}{{{BP2}}{19}}
\citation{lecun-mnisthandwrittendigit-2010}
\citation{Goodfellow-et-al-2016}
\@writefile{toc}{\contentsline {paragraph}{BP3}{20}}
\newlabel{eq:backprop3}{{{BP3}}{20}}
\@writefile{toc}{\contentsline {paragraph}{BP4}{20}}
\newlabel{eq:backprop4}{{{BP4}}{20}}
\@writefile{toc}{\contentsline {section}{\numberline {6}Erkennung handschriftlicher Zahlen}{20}}
\@writefile{toc}{\contentsline {subsection}{\numberline {6.1}Python Implementierung}{20}}
\@writefile{lof}{\contentsline {figure}{\numberline {12}{\ignorespaces Einhundert Zahlen der MNIST Datenbank}}{21}}
\newlabel{fig:mnistexamples}{{12}{21}}
\@writefile{lof}{\contentsline {figure}{\numberline {13}{\ignorespaces Schwer erkennbare Zahlen}}{21}}
\newlabel{fig:mnistbad}{{13}{21}}
\citation{nielsenneural}
\@writefile{toc}{\contentsline {section}{\numberline {7}Schluss}{22}}
\bibstyle{agsm}
\bibdata{references}
\bibcite{Bishop:2006:PRM:1162264}{{1}{2006}{{Bishop}}{{}}}
\bibcite{Goodfellow-et-al-2016}{{2}{2016}{{Goodfellow et~al.}}{{Goodfellow, Bengio \&\ Courville}}}
\bibcite{quantstart2}{{3}{2017{\em  a}}{{Halls-Moore}}{{}}}
\bibcite{quantstart1}{{4}{2017{\em  b}}{{Halls-Moore}}{{}}}
\bibcite{andreykurenkov}{{5}{2017}{{Kurenkov}}{{}}}
\bibcite{lecun-mnisthandwrittendigit-2010}{{6}{2010}{{LeCun \&\ Cortes}}{{}}}
\bibcite{reinforcement}{{7}{2019}{{Lemke}}{{}}}
\bibcite{Mitchell:1997:ML:541177}{{8}{1997}{{Mitchell}}{{}}}
\bibcite{rosenblatt}{{9}{2017}{{M\IeC {\"u}ller}}{{}}}
\bibcite{nielsenneural}{{10}{2018}{{Nielsen}}{{}}}
\bibcite{googleIntro}{{11}{2018}{{Norvig}}{{}}}
\bibcite{derivesigmoid}{{12}{2015}{{Percy}}{{}}}
\bibcite{unsupervised}{{13}{2019}{{Roman}}{{}}}
\bibcite{nvidia}{{14}{2018}{{Salian}}{{}}}
\bibcite{SpektrumNeuronaleNetze}{{15}{2000}{{To}}{{}}}
\bibcite{taot}{{16}{2017}{{Understanding}}{{}}}
\bibcite{Vasilev2019}{{17}{2019}{{Vasilev et~al.}}{{Vasilev, Slater, Spacagna, Roelants \&\ Zocca}}}
