\relax 
\providecommand \oddpage@label [2]{}
\@writefile{toc}{\contentsline {section}{\numberline {1}Notation}{iii}}
\citation{googleIntro}
\citation{andreykurenkov}
\citation{Goodfellow-et-al-2016}
\citation{Bishop:2006:PRM:1162264}
\citation{Bishop:2006:PRM:1162264}
\citation{quantstart1}
\@writefile{toc}{\contentsline {section}{\numberline {2}Einleitung}{1}}
\@writefile{toc}{\contentsline {subparagraph}{Versuch 2}{1}}
\@writefile{toc}{\contentsline {section}{\numberline {3}Mathematische Grundlagen}{1}}
\@writefile{lof}{\contentsline {figure}{\numberline {1}{\ignorespaces Deep Learning, welches neuronale Netze verwendet ist eine Art des Machine Learnings, was f\IeC {\"u}r viele, aber nicht alle Ans\IeC {\"a}tze zu KI verwendet wird.}}{2}}
\newlabel{fig:vennAI}{{1}{2}}
\@writefile{lof}{\contentsline {figure}{\numberline {2}{\ignorespaces Machine Learning l\IeC {\"a}sst sich in \IeC {\"u}berwachtes und nicht \IeC {\"u}berwachtes Lernen aufteilen.}}{2}}
\newlabel{fig:mlarten}{{2}{2}}
\citation{quantstart2}
\citation{Mitchell:1997:ML:541177}
\citation{Vasilev2019}
\@writefile{toc}{\contentsline {subsection}{\numberline {3.1}Skalare, Vektoren, Matrizen und Tensoren}{3}}
\@writefile{toc}{\contentsline {subsection}{\numberline {3.2}Rechenoperationen}{3}}
\@writefile{toc}{\contentsline {subsection}{\numberline {3.3}Normen}{3}}
\@writefile{toc}{\contentsline {subsection}{\numberline {3.4}Gradienten}{3}}
\@writefile{toc}{\contentsline {subsection}{\numberline {3.5}Spezielle Matrizen}{3}}
\@writefile{toc}{\contentsline {section}{\numberline {4}Machine Learning Grundlagen}{3}}
\@writefile{toc}{\contentsline {subsection}{\numberline {4.1}\IeC {\"U}berwachtes Lernen}{3}}
\citation{Vasilev2019}
\citation{Vasilev2019}
\citation{Vasilev2019}
\citation{Goodfellow-et-al-2016}
\@writefile{toc}{\contentsline {subsection}{\numberline {4.2}Un\IeC {\"u}berwachtes Lernen}{4}}
\@writefile{toc}{\contentsline {subsection}{\numberline {4.3}Best\IeC {\"a}rkendes Lernen}{4}}
\@writefile{toc}{\contentsline {subsection}{\numberline {4.4}Lineare Regression}{4}}
\citation{Goodfellow-et-al-2016}
\citation{nielsenneural}
\@writefile{toc}{\contentsline {subsection}{\numberline {4.5}Logistische Regression}{5}}
\@writefile{toc}{\contentsline {subsection}{\numberline {4.6}Support Vector Machines}{5}}
\@writefile{toc}{\contentsline {section}{\numberline {5}Neuronale Netze}{5}}
\citation{Goodfellow-et-al-2016}
\citation{nielsenneural}
\citation{Goodfellow-et-al-2016}
\@writefile{lof}{\contentsline {figure}{\numberline {3}{\ignorespaces Lineare Regression: w wird optimiert}}{6}}
\newlabel{fig:linreg}{{3}{6}}
\@writefile{tdo}{\contentsline {todo}{Abstrakte Funktionsweise eines neuronalen Netzes anhand des Bildes erkl\IeC {\"a}ren. (Einleitung Goodfellow)}{6}}
\oddpage@label{1}{6}
\pgfsyspdfmark {pgfid1}{5594039}{30288765}
\oddpage@label{4}{6}
\pgfsyspdfmark {pgfid4}{36282433}{30303510}
\oddpage@label{5}{6}
\pgfsyspdfmark {pgfid5}{37412929}{30034813}
\@writefile{toc}{\contentsline {subsection}{\numberline {5.1}Feedforward neuronale Netze}{6}}
\@writefile{tdo}{\contentsline {todo}{``Mathematisch gesehen`` ist unpassend}{6}}
\oddpage@label{6}{6}
\pgfsyspdfmark {pgfid6}{13874814}{23699666}
\oddpage@label{9}{6}
\pgfsyspdfmark {pgfid9}{36282433}{4770684}
\oddpage@label{10}{6}
\pgfsyspdfmark {pgfid10}{37412929}{4501987}
\@writefile{lof}{\contentsline {figure}{\numberline {4}{\ignorespaces Ein Feedforward Netz weist Eingaben $x$ bestimmten Ausgaben $y$ zu. Die gesuchte Funktion $f^*$ ordnet hier den $28 \cdot 28$ Pixelwerten der Bilder die jeweiligen Zahlen von 0 bis 9 zu.}}{7}}
\newlabel{fig:mnist09}{{4}{7}}
\@writefile{lof}{\contentsline {figure}{\numberline {5}{\ignorespaces Beispielnetz mit einer verborgenen Schicht und einem Ausgabeneuron.}}{7}}
\newlabel{fig:samplearchitecture}{{5}{7}}
\citation{nielsenneural}
\@writefile{lof}{\contentsline {figure}{\numberline {6}{\ignorespaces Schreib mich. Geht um Gewicht $w^l_{j,k}$}}{8}}
\newlabel{fig:weight}{{6}{8}}
\@writefile{toc}{\contentsline {subsection}{\numberline {5.2}Perzeptron}{8}}
\newlabel{eq:perceptron1}{{13}{8}}
\newlabel{eq:perceptron2}{{15}{8}}
\@writefile{toc}{\contentsline {subsection}{\numberline {5.3}Sigmoid Neuron}{8}}
\@writefile{lof}{\contentsline {figure}{\numberline {7}{\ignorespaces Ein einschichtiges Perzeptron. Die Aktivierungsfunktion ist die Schwellenwertfunktion aus Gleichung (15\hbox {}).}}{9}}
\newlabel{fig:perceptron}{{7}{9}}
\@writefile{toc}{\contentsline {subsection}{\numberline {5.4}Gradientenabstiegsverfahren}{9}}
\@writefile{toc}{\contentsline {subsubsection}{\numberline {5.4.1}Die Kostenfunktion}{9}}
\citation{nielsenneural}
\@writefile{lof}{\contentsline {figure}{\numberline {8}{\ignorespaces Links die Schwellenwertfunktion des Perzeptrons. Rechts die Sigmoidfunktion. Eine kleinere \IeC {\"A}nderung kann bei ersterer Funktion keine Auswirkung haben oder zu einem Wechsel zwischen 0 und 1 f\IeC {\"u}hren, w\IeC {\"a}hrend sie bei zweiterer eine kleine \IeC {\"A}nderung des Funktionswertes zur Folge hat.}}{10}}
\newlabel{fig:activationfunctions}{{8}{10}}
\@writefile{toc}{\contentsline {subsection}{\numberline {5.5}Backpropagation}{10}}
\citation{lecun-mnisthandwrittendigit-2010}
\citation{Goodfellow-et-al-2016}
\@writefile{lof}{\contentsline {figure}{\numberline {9}{\ignorespaces Einhundert Zahlen der MNIST Datenbank mit denen das Netzwerk trainiert wird.}}{11}}
\newlabel{fig:mnistexamples}{{9}{11}}
\@writefile{toc}{\contentsline {section}{\numberline {6}Erkennung handschriftlicher Zahlen}{11}}
\@writefile{toc}{\contentsline {subsection}{\numberline {6.1}Python Implementierung}{11}}
\citation{Goodfellow-et-al-2016}
\@writefile{lof}{\contentsline {figure}{\numberline {10}{\ignorespaces 2018 erkannte ein Konvo}}{12}}
\newlabel{fig:mnistbad}{{10}{12}}
\@writefile{toc}{\contentsline {section}{\numberline {7}Schluss}{12}}
\@writefile{toc}{\contentsline {paragraph}{Tempor\IeC {\"a}re Fragmente}{12}}
\bibstyle{agsm}
\bibdata{references}
\bibcite{quantstart2}{{1}{2018{\em  a}}{{AUTOR_UND_JAHR_NOCH_FINDEN}}{{}}}
\bibcite{quantstart1}{{2}{2018{\em  b}}{{AUTOR_UND_JAHR_NOCH_FINDEN}}{{}}}
\bibcite{Bishop:2006:PRM:1162264}{{3}{2006}{{Bishop}}{{}}}
\bibcite{Goodfellow-et-al-2016}{{4}{2016}{{Goodfellow et~al.}}{{Goodfellow, Bengio \&\ Courville}}}
\bibcite{andreykurenkov}{{5}{2017}{{Kurenkov}}{{}}}
\bibcite{lecun-mnisthandwrittendigit-2010}{{6}{2010}{{LeCun \&\ Cortes}}{{}}}
\bibcite{Mitchell:1997:ML:541177}{{7}{1997}{{Mitchell}}{{}}}
\bibcite{nielsenneural}{{8}{2018}{{Nielsen}}{{}}}
\bibcite{googleIntro}{{9}{2018}{{Norvig}}{{}}}
\bibcite{Vasilev2019}{{10}{2019}{{Vasilev et~al.}}{{Vasilev, Slater, Spacagna, Roelants \&\ Zocca}}}
