This is BibTeX, Version 0.99dThe top-level auxiliary file: Seminararbeit.aux
The style file: agsm.bst
Database file #1: references.bib
Warning--entry type for "googleIntro" isn't style-file defined
--line 25 of file references.bib
(There was 1 warning)
