3.7.4 (tags/v3.7.4:e09359112e, Jul  8 2019, 20:34:20) [MSC v.1916 64 bit (AMD64)] 

Loading MNIST database
Trainingsamples: 50000 Testsamples: 10000
Initialized network with 4 layers
Dimensions:  {0: 784, 1: 30, 2: 10, 3: 10} 

Starting training with batchsize 10 and learningrate 3.0
Epoch: 0; Identified: 925 / 10000
Epoch: 1; Identified: 9049 / 10000
Epoch: 2; Identified: 9152 / 10000
Epoch: 3; Identified: 9284 / 10000
Epoch: 4; Identified: 9278 / 10000
Epoch: 5; Identified: 9354 / 10000
Epoch: 6; Identified: 9393 / 10000
Epoch: 7; Identified: 9418 / 10000
Epoch: 8; Identified: 9396 / 10000
Epoch: 9; Identified: 9386 / 10000
Epoch: 10; Identified: 9417 / 10000
Epoch: 11; Identified: 9390 / 10000
Epoch: 12; Identified: 9472 / 10000
Epoch: 13; Identified: 9413 / 10000
Epoch: 14; Identified: 9424 / 10000
Epoch: 15; Identified: 9457 / 10000
Epoch: 16; Identified: 9475 / 10000
Epoch: 17; Identified: 9430 / 10000
Epoch: 18; Identified: 9448 / 10000
Epoch: 19; Identified: 9470 / 10000
Epoch: 20; Identified: 9489 / 10000
Epoch: 21; Identified: 9468 / 10000
Epoch: 22; Identified: 9475 / 10000
Epoch: 23; Identified: 9479 / 10000
Epoch: 24; Identified: 9461 / 10000
Epoch: 25; Identified: 9486 / 10000
Epoch: 26; Identified: 9495 / 10000
Epoch: 27; Identified: 9442 / 10000
Epoch: 28; Identified: 9497 / 10000
Epoch: 29; Identified: 9495 / 10000
Epoch: 30; Identified: 9459 / 10000
