3.7.4 (tags/v3.7.4:e09359112e, Jul  8 2019, 20:34:20) [MSC v.1916 64 bit (AMD64)] 

Loading MNIST database
Trainingsamples: 50000 Testsamples: 10000
Initialized network with 3 layers
Dimensions:  {0: 784, 1: 10, 2: 10} 

Starting training with batchsize 50 and learningrate 1.0
Epoch: 0; Identified: 682 / 10000
Epoch: 1; Identified: 5638 / 10000
Epoch: 2; Identified: 7195 / 10000
Epoch: 3; Identified: 7868 / 10000
Epoch: 4; Identified: 8178 / 10000
Epoch: 5; Identified: 8339 / 10000
Epoch: 6; Identified: 8451 / 10000
Epoch: 7; Identified: 8545 / 10000
Epoch: 8; Identified: 8593 / 10000
Epoch: 9; Identified: 8646 / 10000
Epoch: 10; Identified: 8662 / 10000
Epoch: 11; Identified: 8687 / 10000
Epoch: 12; Identified: 8720 / 10000
Epoch: 13; Identified: 8748 / 10000
Epoch: 14; Identified: 8763 / 10000
Epoch: 15; Identified: 8756 / 10000
Epoch: 16; Identified: 8778 / 10000
Epoch: 17; Identified: 8790 / 10000
Epoch: 18; Identified: 8791 / 10000
Epoch: 19; Identified: 8806 / 10000
Epoch: 20; Identified: 8811 / 10000
Epoch: 21; Identified: 8808 / 10000
Epoch: 22; Identified: 8831 / 10000
Epoch: 23; Identified: 8844 / 10000
Epoch: 24; Identified: 8836 / 10000
Epoch: 25; Identified: 8844 / 10000
Epoch: 26; Identified: 8850 / 10000
Epoch: 27; Identified: 8848 / 10000
Epoch: 28; Identified: 8858 / 10000
Epoch: 29; Identified: 8879 / 10000
Epoch: 30; Identified: 8875 / 10000
