3.7.4 (tags/v3.7.4:e09359112e, Jul  8 2019, 20:34:20) [MSC v.1916 64 bit (AMD64)] 

Loading MNIST database
Trainingsamples: 50000 Testsamples: 10000
Initialized network with 2 layers
Dimensions:  {0: 784, 1: 10} 

Starting training with batchsize 50 and learningrate 5.0
Epoch: 0; Identified: 955 / 10000
Epoch: 1; Identified: 4726 / 10000
Epoch: 2; Identified: 4809 / 10000
Epoch: 3; Identified: 6382 / 10000
Epoch: 4; Identified: 6525 / 10000
Epoch: 5; Identified: 7401 / 10000
Epoch: 6; Identified: 7453 / 10000
Epoch: 7; Identified: 7450 / 10000
Epoch: 8; Identified: 7463 / 10000
Epoch: 9; Identified: 7493 / 10000
Epoch: 10; Identified: 7470 / 10000
Epoch: 11; Identified: 7479 / 10000
Epoch: 12; Identified: 7483 / 10000
Epoch: 13; Identified: 7490 / 10000
Epoch: 14; Identified: 7486 / 10000
Epoch: 15; Identified: 7494 / 10000
Epoch: 16; Identified: 7494 / 10000
Epoch: 17; Identified: 7506 / 10000
Epoch: 18; Identified: 7500 / 10000
Epoch: 19; Identified: 7506 / 10000
Epoch: 20; Identified: 7524 / 10000
Epoch: 21; Identified: 7511 / 10000
Epoch: 22; Identified: 7494 / 10000
Epoch: 23; Identified: 7514 / 10000
Epoch: 24; Identified: 7520 / 10000
Epoch: 25; Identified: 7508 / 10000
Epoch: 26; Identified: 7508 / 10000
Epoch: 27; Identified: 7518 / 10000
Epoch: 28; Identified: 7519 / 10000
Epoch: 29; Identified: 7541 / 10000
Epoch: 30; Identified: 7582 / 10000
