3.7.4 (tags/v3.7.4:e09359112e, Jul  8 2019, 20:34:20) [MSC v.1916 64 bit (AMD64)] 

Loading MNIST database
Trainingsamples: 50000 Testsamples: 10000
Initialized network with 4 layers
Dimensions:  {0: 784, 1: 10, 2: 30, 3: 10} 

Starting training with batchsize 100 and learningrate 1.0
Epoch: 0; Identified: 1025 / 10000
Epoch: 1; Identified: 4275 / 10000
Epoch: 2; Identified: 5947 / 10000
Epoch: 3; Identified: 6936 / 10000
Epoch: 4; Identified: 7371 / 10000
Epoch: 5; Identified: 7652 / 10000
Epoch: 6; Identified: 7879 / 10000
Epoch: 7; Identified: 8105 / 10000
Epoch: 8; Identified: 8256 / 10000
Epoch: 9; Identified: 8368 / 10000
Epoch: 10; Identified: 8444 / 10000
Epoch: 11; Identified: 8510 / 10000
Epoch: 12; Identified: 8572 / 10000
Epoch: 13; Identified: 8627 / 10000
Epoch: 14; Identified: 8662 / 10000
Epoch: 15; Identified: 8703 / 10000
Epoch: 16; Identified: 8753 / 10000
Epoch: 17; Identified: 8794 / 10000
Epoch: 18; Identified: 8825 / 10000
Epoch: 19; Identified: 8858 / 10000
Epoch: 20; Identified: 8875 / 10000
Epoch: 21; Identified: 8892 / 10000
Epoch: 22; Identified: 8904 / 10000
Epoch: 23; Identified: 8925 / 10000
Epoch: 24; Identified: 8942 / 10000
Epoch: 25; Identified: 8972 / 10000
Epoch: 26; Identified: 8969 / 10000
Epoch: 27; Identified: 8988 / 10000
Epoch: 28; Identified: 9000 / 10000
Epoch: 29; Identified: 9009 / 10000
Epoch: 30; Identified: 9017 / 10000
