3.7.4 (tags/v3.7.4:e09359112e, Jul  8 2019, 20:34:20) [MSC v.1916 64 bit (AMD64)] 

Loading MNIST database
Trainingsamples: 50000 Testsamples: 10000
Initialized network with 4 layers
Dimensions:  {0: 784, 1: 20, 2: 10, 3: 10} 

Starting training with batchsize 10 and learningrate 1.0
Epoch: 0; Identified: 1081 / 10000
Epoch: 1; Identified: 8327 / 10000
Epoch: 2; Identified: 8850 / 10000
Epoch: 3; Identified: 9006 / 10000
Epoch: 4; Identified: 9034 / 10000
Epoch: 5; Identified: 9111 / 10000
Epoch: 6; Identified: 9160 / 10000
Epoch: 7; Identified: 9192 / 10000
Epoch: 8; Identified: 9259 / 10000
Epoch: 9; Identified: 9252 / 10000
Epoch: 10; Identified: 9268 / 10000
Epoch: 11; Identified: 9268 / 10000
Epoch: 12; Identified: 9272 / 10000
Epoch: 13; Identified: 9322 / 10000
Epoch: 14; Identified: 9296 / 10000
Epoch: 15; Identified: 9321 / 10000
Epoch: 16; Identified: 9316 / 10000
Epoch: 17; Identified: 9302 / 10000
Epoch: 18; Identified: 9352 / 10000
Epoch: 19; Identified: 9324 / 10000
Epoch: 20; Identified: 9330 / 10000
Epoch: 21; Identified: 9316 / 10000
Epoch: 22; Identified: 9341 / 10000
Epoch: 23; Identified: 9337 / 10000
Epoch: 24; Identified: 9354 / 10000
Epoch: 25; Identified: 9339 / 10000
Epoch: 26; Identified: 9345 / 10000
Epoch: 27; Identified: 9283 / 10000
Epoch: 28; Identified: 9334 / 10000
Epoch: 29; Identified: 9378 / 10000
Epoch: 30; Identified: 9337 / 10000
